STRAATNAAM;POSTCODE_VAN;POSTCODE_TOT;LEVERINGSRICHTING_PERC;AANSLUITINGEN_AANTAL;SJV_GEMIDDELD;Year
troepmap  Piusplein;5252XX;5253AA;88;25;6138;2015
Groeneweg;5401AA;5401AA;96;24;2892;2015
Groeneweg;5401AB;5401AB;100;16;4299;2015
Lambertusstraat;5401AC;5401AC;100;20;3200;2015
Nieuburgstraat;5401AD;5401AD;100;14;3109;2015
Hooihofstraat;5401AE;5401AE;96;23;4624;2015
Bisschop Bekkerslaan;5401AG;5401AG;89;19;3967;2015
Paus Joanneslaan;5401AH;5401AH;100;17;4984;2015
Helenastraat;5401AJ;5401AJ;100;20;4377;2015
Helenastraat;5401AK;5401AL;94;50;3807;2015
Helenastraat;5401AM;5401AM;100;22;3084;2015
St. Annastraat;5401AN;5401AN;100;27;7452;2015
St. Annastraat;5401AP;5401AP;100;25;3302;2015
Waterstraat;5401AR;5401AR;100;15;3639;2015
Rooijsestraat;5401AS;5401AT;100;61;4762;2015
Smidsstraat;5401AV;5401AV;100;20;2275;2015
Kerkakkerstraat;5401AW;5401AW;100;15;3122;2015
Kerkakkerstraat;5401AX;5401AX;100;35;2643;2015
Vorstenburg;5401AZ;5401AZ;100;19;10642;2015
St. Janstraat;5401BA;5401BA;100;22;15183;2015
St. Janstraat;5401BB;5401BB;100;11;42965;2015
Kerkstraat;5401BC;5401BC;93;14;6746;2015
Kerkstraat;5401BD;5401BD;100;23;16854;2015
St. Janstraat;5401BE;5401BK;100;71;6966;2015
Deken de Louwstraat;5401BM;5401BM;97;35;4396;2015
Missielaan;5401BN;5401BN;100;34;4486;2015
Missielaan;5401BP;5401BP;93;15;4361;2015
Missielaan;5401BR;5401BR;100;15;3790;2015
Jan van Oortstraat;5401BT;5401BW;97;31;4362;2015
Peerke Verkuijlenstraat;5401BX;5401BZ;100;22;4272;2015
Birgittinessenstraat;5401CA;5401CA;100;16;4659;2015
Oranjestraat;5401CB;5401CB;100;38;4367;2015
Wilhelminastraat;5401CC;5401CC;100;25;4708;2015
Wilhelminastraat;5401CD;5401CD;100;24;3049;2015
Wilhelminastraat;5401CE;5401CE;100;25;3665;2015
Wilhelminastraat;5401CG;5401CG;100;62;2283;2015
Wilhelminastraat;5401CH;5401CH;97;113;3276;2015
Irenestraat;5401CJ;5401CJ;93;28;3106;2015
Beatrixhof;5401CK;5401CK;100;24;4221;2015
Beatrixhof;5401CL;5401CL;100;24;4191;2015
Beatrixhof;5401CM;5401CM;100;24;4859;2015
Beatrixhof;5401CN;5401CN;100;24;4506;2015
Beatrixhof;5401CP;5401CP;100;23;4268;2015
Beatrixhof;5401CR;5401CR;100;23;4119;2015
Beatrixhof;5401CS;5401CS;100;25;4880;2015
Beatrixhof;5401CT;5401CT;100;25;3842;2015
Christinastraat;5401CZ;5401CZ;92;13;8625;2015
Willem-Alexanderhof;5401DA;5401DA;100;26;4494;2015
Willem-Alexanderhof;5401DB;5401DB;100;24;2716;2015
Willem-Alexanderhof;5401DC;5401DC;100;25;2651;2015
Willem-Alexanderhof;5401DD;5401DD;100;24;3312;2015
Willem-Alexanderhof;5401DE;5401DE;100;25;3775;2015
Willem-Alexanderhof;5401DG;5401DG;100;24;2843;2015
Petrushof;5401DH;5401DX;100;17;14319;2015
Slotpad;5401DZ;5401EA;100;49;3915;2015
Mgr. Bosstraat;5401EB;5401EB;93;14;4134;2015
Kapelstraat;5401EC;5401EC;100;11;19483;2015
Burgemeester Buskensstr;5401ED;5401ED;100;43;4372;2015
Burgemeester Buskensstr;5401EE;5401EE;92;37;3500;2015
Kapelstraat;5401EG;5401EG;100;17;2366;2015
Kapelstraat;5401EH;5401EH;100;46;2390;2015
Markt;5401EJ;5401EK;100;29;1703;2015
Aloysiusstraat;5401EL;5401EL;100;35;2325;2015
Neringstraat-West;5401GB;5401GC;97;38;14501;2015
Galerij;5401GD;5401GD;100;29;20336;2015
Marktstraat;5401GE;5401GE;100;32;16124;2015
Marktstraat;5401GG;5401GG;95;19;18976;2015
Marktstraat;5401GH;5401GH;95;20;27695;2015
Zuiderpassage;5401GJ;5401GL;100;41;10184;2015
Promenade;5401GM;5401GM;100;34;9376;2015
Markt;5401GN;5401GN;100;54;12305;2015
Markt;5401GP;5401GP;100;25;27809;2015
Sacramentsweg;5401GR;5401GR;100;39;15528;2015
Brabantplein;5401GS;5401GS;100;46;7520;2015
Pastoor Spieringsstraat;5401GT;5401GT;99;115;4500;2015
Pastoor Spieringsstraat;5401GV;5401GV;100;50;3267;2015
Kastanjeweg;5401GW;5401GW;100;86;5884;2015
Koopmanstraat;5401GX;5401GX;100;25;3397;2015
Biggenstraat;5401HA;5401HA;100;36;2704;2015
Nieuwe Markt;5401HB;5401HB;100;63;3177;2015
Julianastraat;5401HC;5401HC;100;29;4351;2015
Julianastraat;5401HD;5401HD;100;25;4212;2015
Kazernestraat;5401HE;5401HG;100;25;2718;2015
Julianastraat;5401HH;5401HH;100;24;1642;2015
Julianastraat;5401HJ;5401HJ;100;20;2345;2015
Velmolenweg;5401HL;5401HL;100;44;3780;2015
Biggenstraat;5401HM;5401HM;100;81;2021;2015
de Misse;5401HT;5401HT;100;19;5063;2015
Oranjepassage;5401HV;5401HW;100;20;5419;2015
Mondriaanplein;5401HX;5401HX;100;48;10347;2015
Sacramentsweg;5401HZ;5401HZ;100;41;3887;2015
Bitswijk;5401JA;5401JA;100;24;10136;2015
Bitswijk;5401JB;5401JB;97;38;7540;2015
Ringbaan-Noord;5401JE;5401JE;97;32;4454;2015
Noorderhof;5401JG;5401JG;100;19;3287;2015
Kastanjeweg;5401JP;5401JP;100;12;2654;2015
Pitstraat;5401KP;5401KP;100;10;3456;2015
Busselstraat;5401KR;5401KR;100;21;3666;2015
Meikers;5401KS;5401KW;100;27;3187;2015
Houtkers;5401KX;5401KX;100;13;3882;2015
Houtkers;5401KZ;5401KZ;100;17;2718;2015
Morel;5401LA;5401LA;98;40;2761;2015
Morel;5401LB;5401LB;100;11;3917;2015
Morel;5401LC;5401LC;97;33;3485;2015
Morel;5401LD;5401LD;100;24;4053;2015
Morel;5401LE;5401LE;94;32;3046;2015
Kroezel;5401LG;5401LG;100;19;3846;2015
Mulderspad;5401LH;5401LH;100;17;2927;2015
Wijnkers;5401LJ;5401LJ;100;25;3179;2015
Wijnkers;5401LK;5401LK;100;25;3673;2015
Boskriek;5401LL;5401LL;100;18;3650;2015
Boskriek;5401LM;5401LM;93;27;3899;2015
Boskriek;5401LN;5401LN;96;24;3478;2015
Boskriek;5401LP;5401LP;100;14;3588;2015
Merketon;5401LR;5401LR;100;30;4337;2015
Merketon;5401LS;5401LS;89;18;5310;2015
Bellefleur;5401LT;5401LT;100;22;3697;2015
Sterappel;5401LV;5401LV;92;26;4209;2015
Sterappel;5401LW;5401LW;100;34;3296;2015
Goudrenet;5401LX;5401LX;100;29;2845;2015
Goudrenet;5401LZ;5401LZ;100;31;3867;2015
Burenstraat;5401NA;5401NA;100;30;2229;2015
Nonnenveld;5401NC;5401NC;100;33;2208;2015
Nonnenveld;5401ND;5401NE;100;35;2028;2015
Nonnenveld;5401NG;5401NG;100;25;2391;2015
Nonnenveld;5401NH;5401NH;100;30;2546;2015
Nonnenveld;5401NJ;5401NJ;100;31;1973;2015
Abdijhof;5401NK;5401NK;100;29;2307;2015
Abdijlaan;5401NL;5401NL;100;17;2699;2015
Abdijlaan;5401NM;5401NM;100;35;2183;2015
Abdijlaan;5401NN;5401NN;100;36;2356;2015
Abdijlaan;5401NP;5401NP;100;22;1723;2015
Oud Moleneind;5401NR;5401PA;100;25;3553;2015
Veghelsedijk;5401PB;5401PB;100;20;9517;2015
Groenewoud;5401PC;5401PC;94;33;4647;2015
Schepersweg;5401PD;5401PD;94;18;4132;2015
Vijfhuizerweg;5401PE;5401PE;92;25;5042;2015
Vijfhuizerweg;5401PG;5401PG;100;14;4748;2015
Broekmorgen;5401PJ;5401PJ;100;54;3570;2015
Broekmorgen;5401PK;5401PK;100;37;3971;2015
de Cour;5401XS;5401XS;100;32;1814;2015
Walterus Pijnenborghhof;5401XT;5401XT;100;39;2730;2015
Odiliastraat;5401XV;5401XV;100;25;2177;2015
Odiliastraat;5401XW;5401XW;100;25;6104;2015
Odiliastraat;5401XX;5401XX;100;24;2321;2015
Odiliastraat;5401XZ;5401XZ;100;17;2429;2015
Ringbaan-Noord;5401ZA;5401ZA;100;28;3277;2015
Verduijnstraat;5401ZB;5401ZB;100;18;2779;2015
Pastoor van Doornstraat;5401ZC;5401ZC;100;28;3247;2015
Pastoor van Doornstraat;5401ZD;5401ZD;100;25;3584;2015
Kersenstraat;5401ZE;5401ZE;100;20;3396;2015
Bogerdstraat;5401ZG;5401ZG;100;17;3210;2015
Bogerdstraat;5401ZH;5401ZH;100;19;3008;2015
Bogerdstraat;5401ZJ;5401ZJ;95;19;3448;2015
Bogerdstraat;5401ZK;5401ZK;100;18;3075;2015
Peperstraat;5401ZL;5401ZL;100;22;3644;2015
Peperstraat;5401ZM;5401ZM;100;12;2772;2015
Bosschebaan;5401ZN;5401ZN;92;24;3378;2015
Bosschebaan;5401ZP;5401ZP;100;37;2319;2015
Aalstweg;5401ZR;5401ZR;100;24;4755;2015
Oudekerkpad;5401ZS;5401ZT;100;37;2504;2015
Standerd;5401ZV;5401ZX;100;28;3901;2015
Odiliastraat;5401ZZ;5401ZZ;100;72;3576;2015
Cellostraat;5402AA;5402AA;96;25;3907;2015
Cellostraat;5402AB;5402AB;86;14;3755;2015
Cellostraat;5402AC;5402AC;100;25;3619;2015
Cellostraat;5402AD;5402AD;100;15;3202;2015
Cellostraat;5402AE;5402AE;100;13;3590;2015
Basstraat;5402AG;5402AG;100;26;3174;2015
Citerstraat;5402AH;5402AH;100;27;2915;2015
Altstraat;5402AJ;5402AJ;100;14;2822;2015
Altstraat;5402AK;5402AK;100;27;3450;2015
Spinetstraat;5402AL;5402AL;100;14;3499;2015
Spinetstraat;5402AM;5402AM;100;18;3129;2015
Spinetstraat;5402AN;5402AN;100;17;3752;2015
Luitstraat;5402AP;5402AP;100;23;3878;2015
Luitstraat;5402AR;5402AR;100;20;2978;2015
Luitstraat;5402AS;5402AS;100;21;3087;2015
Vioolstraat;5402AT;5402AT;100;11;3466;2015
Vioolstraat;5402AV;5402AV;100;23;2919;2015
Vioolstraat;5402AW;5402AW;100;18;3621;2015
Cimbaallaan;5402AX;5402AX;96;25;4126;2015
Cimbaallaan;5402AZ;5402AZ;100;25;4623;2015
Harmoniumlaan;5402BA;5402BA;92;12;4230;2015
Schalmeilaan;5402BB;5402BB;100;10;4094;2015
Klarinetstraat;5402BC;5402BC;94;16;4380;2015
Klarinetstraat;5402BD;5402BD;100;12;3404;2015
Klarinetstraat;5402BE;5402BE;92;13;3410;2015
Klavecimbellaan;5402BG;5402BH;90;21;4962;2015
Hobostraat;5402CB;5402CB;100;14;3661;2015
Hobostraat;5402CC;5402CC;100;23;3856;2015
Saxofoonstraat;5402CD;5402CD;94;18;3155;2015
Saxofoonstraat;5402CE;5402CE;100;24;3416;2015
Saxofoonstraat;5402CG;5402CG;96;25;3243;2015
Saxofoonstraat;5402CH;5402CH;100;22;3578;2015
Accordeonstraat;5402CJ;5402CJ;100;29;2767;2015
Kornetstraat;5402CK;5402CK;100;22;3262;2015
Kornetstraat;5402CL;5402CL;91;22;3538;2015
Kornetstraat;5402CM;5402CM;100;13;2410;2015
Kornetstraat;5402CN;5402CP;100;36;2779;2015
Muziekplein;5402CR;5402CR;100;12;5799;2015
Muziekplein;5402CS;5402CS;100;17;4160;2015
Muziekplein;5402CT;5402CT;100;24;1775;2015
Muziekplein;5402CV;5402CV;100;31;4461;2015
Mandolinestraat;5402CW;5402CW;100;15;3445;2015
Mandolinestraat;5402CX;5402CX;100;15;3976;2015
Mandolinestraat;5402CZ;5402CZ;100;16;3761;2015
Banjostraat;5402DA;5402DA;100;24;3335;2015
Gitaarstraat;5402DB;5402DB;100;12;3610;2015
Gitaarstraat;5402DC;5402DC;100;26;3366;2015
Harpstraat;5402DD;5402DD;100;23;4106;2015
Harpstraat;5402DE;5402DE;100;12;1943;2015
Harpstraat;5402DG;5402DG;100;18;3527;2015
Pianostraat;5402DH;5402DH;100;20;4187;2015
Pianostraat;5402DJ;5402DJ;100;17;4785;2015
Piusplein;5402EA;5402EA;100;68;3638;2015
Grootveldstraat;5402EB;5402EB;100;35;3413;2015
Nassaustraat;5402EC;5402EC;100;22;2476;2015
Heinsbergenstraat;5402ED;5402ED;92;26;5286;2015
Heinsbergenstraat;5402EE;5402EE;100;17;2459;2015
Heinsbergenstraat;5402EG;5402EG;100;14;7644;2015
Land van Ravensteinstr;5402EH;5402EH;100;21;4411;2015
Land van Ravensteinstr;5402EJ;5402EJ;94;18;4418;2015
Land van Ravensteinstr;5402EK;5402EK;100;31;4092;2015
Rode Akker;5402EM;5402EM;100;20;1928;2015
Rode Akker;5402EN;5402EN;100;30;1668;2015
Ereprijsstraat;5402GA;5402GA;100;18;11354;2015
Prof. Pulsersstraat;5402GB;5402GD;97;29;3715;2015
Prof. Pulsersstraat;5402GE;5402GE;100;19;3903;2015
Prior van Milstraat;5402GG;5402GG;100;16;2827;2015
Prior van Milstraat;5402GH;5402GH;100;36;4872;2015
Stationstraat;5402GJ;5402GM;96;26;5354;2015
Burgemeester Thijssenstr;5402GN;5402GN;100;32;1820;2015
Prior van Milstraat;5402GP;5402GR;100;29;11298;2015
Vaaldriessenstraat;5402GS;5402HB;100;31;4920;2015
Trompetstraat;5402HC;5402HC;91;22;4042;2015
Trombonestraat;5402HD;5402HD;100;14;2718;2015
Tubastraat;5402HE;5402HE;100;29;1768;2015
Xylofoonstraat;5402HG;5402HG;96;24;3068;2015
Paukenstraat;5402HH;5402HH;89;19;4567;2015
Paukenstraat;5402HJ;5402HJ;100;20;3613;2015
Paukenstraat;5402HK;5402HK;95;20;4734;2015
Paukenstraat;5402HL;5402HL;100;22;7165;2015
Steenovenstraat;5402HM;5402HN;100;22;7296;2015
Hoornstraat;5402HP;5402HP;95;22;3773;2015
Bugelstraat;5402HR;5402HR;100;24;3223;2015
Dwarsfluitstraat;5402HS;5402HS;100;19;3251;2015
Dwarsfluitstraat;5402HT;5402HT;100;15;3389;2015
Dwarsfluitstraat;5402HV;5402HV;100;19;2951;2015
Tamboerijnstraat;5402HW;5402HW;100;15;3709;2015
Tamboerijnstraat;5402HX;5402HX;100;15;3026;2015
Symfonie;5402HZ;5402HZ;100;19;4360;2015
Triangelstraat;5402JA;5402JA;100;13;3956;2015
Triangelstraat;5402JB;5402JB;100;26;3550;2015
President Kennedylaan;5402KA;5402KA;96;25;3446;2015
President Kennedylaan;5402KB;5402KB;100;53;3646;2015
President Kennedylaan;5402KC;5402KC;97;32;6328;2015
President Kennedylaan;5402KD;5402KD;92;13;24644;2015
Wolfgangstraat;5402KE;5402KK;97;39;3784;2015
Kleefsestraat;5402KL;5402KL;100;21;2947;2015
Herpenstraat;5402KM;5402KM;100;15;3406;2015
Herpenstraat;5402KN;5402KN;100;22;2753;2015
Herpenstraat;5402KP;5402KP;90;10;3086;2015
Herpenstraat;5402KR;5402KR;100;21;6129;2015
Brandenburgstraat;5402KS;5402KS;100;30;3737;2015
Brandenburgstraat;5402KT;5402KT;100;23;3446;2015
Salmstraat;5402KV;5402KV;100;20;3812;2015
Salmstraat;5402KW;5402KW;100;15;3944;2015
Salmstraat;5402KX;5402KX;100;15;3804;2015
Cuijkstraat;5402KZ;5402KZ;100;22;2947;2015
Violierstraat;5402LA;5402LA;96;25;16536;2015
Duizendschoonstraat;5402LB;5402LC;92;25;3746;2015
Duizendschoonstraat;5402LD;5402LD;100;22;3440;2015
Duizendschoonstraat;5402LE;5402LE;96;27;3082;2015
Oliemolenstraat;5402LG;5402LG;94;16;3170;2015
Oliemolenstraat;5402LH;5402LH;100;14;2737;2015
Oliemolenstraat;5402LJ;5402LJ;87;23;6018;2015
Schutboomstraat;5402LK;5402LK;100;14;3189;2015
Schutboomstraat;5402LL;5402LL;100;11;4301;2015
Vlosstraat;5402LM;5402LM;100;15;3566;2015
Vlosstraat;5402LN;5402LN;100;22;3589;2015
Mussenstraat;5402LP;5402LP;100;22;3552;2015
Elzenstraat;5402LR;5402LR;92;25;4167;2015
Schutveldstraat;5402LS;5402LS;96;27;4262;2015
De Geren;5402LT;5402LT;100;21;4160;2015
Millsebaan;5402LV;5402LV;94;17;5792;2015
Millsebaan;5402LW;5402LW;95;22;4284;2015
Klaroenlaan;5402PA;5402PA;95;19;4895;2015
Bazuinlaan;5402PB;5402PB;88;16;4730;2015
Bazuinlaan;5402PC;5402PC;100;12;4937;2015
Orgellaan;5402PD;5402PD;91;22;6854;2015
Orgellaan;5402PE;5402PE;81;16;4161;2015
Orgellaan;5402PG;5402PG;100;12;4812;2015
Reinoldstraat;5402VA;5402VC;98;42;5449;2015
Elisabethstraat;5402VD;5402VD;96;27;4656;2015
Elisabethstraat;5402VE;5402VE;100;14;2518;2015
Elisabethstraat;5402VG;5402VG;100;16;3462;2015
Valkenburgstraat;5402VH;5402VH;100;17;2482;2015
Valkenburgstraat;5402VJ;5402VJ;100;16;2926;2015
Valkenburgstraat;5402VK;5402VK;100;22;2969;2015
Willemstraat;5402VL;5402VL;100;14;4029;2015
Walravenstraat;5402VM;5402VM;100;20;2542;2015
Walravenstraat;5402VN;5402VN;94;18;3070;2015
Maatsestraat;5402VP;5402VP;100;26;2821;2015
Maatsestraat;5402VR;5402VR;100;15;3659;2015
Oude Hoevenseweg;5402VS;5402WG;96;24;3676;2015
Herman Linnebankhof;5402WH;5402WH;92;13;3637;2015
Leeuweriksweg;5402XA;5402XA;100;21;5575;2015
Leeuweriksweg;5402XB;5402XB;100;21;3600;2015
Leeuweriksweg;5402XC;5402XC;100;17;2583;2015
Leeuweriksweg;5402XD;5402XD;100;15;6731;2015
Leeuweriksweg;5402XE;5402XE;100;15;3288;2015
Leeuweriksweg;5402XG;5402XG;100;10;3082;2015
Meerloseweg;5402XH;5402XH;100;18;2617;2015
Anjerstraat;5402XJ;5402XJ;100;19;3797;2015
Narcisstraat;5402XK;5402XK;88;17;2616;2015
Narcisstraat;5402XL;5402XL;100;18;2941;2015
Narcisstraat;5402XM;5402XM;90;21;3462;2015
Orchideestraat;5402XN;5402XN;100;19;2699;2015
Alardstraat;5402ZA;5402ZA;95;22;3117;2015
Alardstraat;5402ZB;5402ZB;100;24;2667;2015
Aldetiendstraat;5402ZC;5402ZC;100;31;7679;2015
Tulpstraat;5402ZD;5402ZD;96;24;3100;2015
Hyacintstraat;5402ZE;5402ZG;92;25;3206;2015
Crocusstraat;5402ZH;5402ZJ;100;22;2930;2015
Crocusstraat;5402ZK;5402ZK;100;14;4079;2015
Lavendelstraat;5402ZL;5402ZL;100;22;3141;2015
Lavendelstraat;5402ZM;5402ZM;100;17;3588;2015
Lavendelstraat;5402ZN;5402ZN;93;14;3391;2015
Lavendelstraat;5402ZP;5402ZP;100;15;3172;2015
Millsebaan;5403AA;5403AA;100;49;7125;2015
Meerhoek;5403AB;5403AB;95;21;4500;2015
Meerhoek;5403AC;5403AC;100;23;4258;2015
Meerhoek;5403AD;5403AD;96;25;4526;2015
Bosveld;5403AE;5403AE;100;18;4088;2015
Bosveld;5403AG;5403AH;95;19;8346;2015
Bosveld;5403AJ;5403AJ;100;19;3688;2015
Bosveld;5403AK;5403AK;100;19;3452;2015
Bosveld;5403AL;5403AL;100;18;3638;2015
Bosveld;5403AM;5403AM;100;18;3672;2015
Bosveld;5403AN;5403AN;100;14;4029;2015
Bosveld;5403AP;5403AP;100;13;1659;2015
Bosveld;5403AR;5403AR;100;16;4032;2015
Bosveld;5403AS;5403AS;100;30;1768;2015
Bosveld;5403AT;5403AT;100;33;1712;2015
Keizershof;5403BA;5403BA;95;20;4571;2015
Keizershof;5403BB;5403BC;100;28;3281;2015
Keizershof;5403BD;5403BD;100;12;4285;2015
Keizershof;5403BE;5403BE;100;26;3816;2015
Keizershof;5403BG;5403BG;100;11;3099;2015
Keizershof;5403BH;5403BH;100;18;2876;2015
Keizershof;5403BJ;5403BJ;100;53;3094;2015
Keizershof;5403BK;5403BK;100;12;3250;2015
Jonkerveld;5403BL;5403BL;100;10;3062;2015
Jonkerveld;5403BM;5403BM;100;11;3547;2015
Jonkerveld;5403BN;5403BN;100;11;2811;2015
Jonkerveld;5403BP;5403BP;100;17;2906;2015
Jonkerveld;5403BR;5403BR;100;14;3438;2015
Jonkerveld;5403BS;5403BS;100;12;2660;2015
Jonkerveld;5403BT;5403BT;100;23;3565;2015
Hofstukken;5403BV;5403BW;100;69;3965;2015
Hofstukken;5403BX;5403BX;100;24;3459;2015
Hofstukken;5403BZ;5403BZ;97;66;3307;2015
Jonkerveld;5403CB;5403CB;100;18;4101;2015
Jonkerveld;5403CC;5403CC;95;20;3759;2015
Schoutenhoek;5403EA;5403EA;100;25;3364;2015
Schoutenhoek;5403EB;5403EB;100;25;3081;2015
Schoutenhoek;5403EC;5403EC;100;20;3335;2015
Schoutenhoek;5403ED;5403ED;100;22;3498;2015
Rentmeestershoef;5403EE;5403EE;100;27;3254;2015
Rentmeestershoef;5403EG;5403EG;96;27;4566;2015
Rentmeestershoef;5403EH;5403EH;100;27;3585;2015
Rentmeestershoef;5403EJ;5403EJ;100;21;3250;2015
Rentmeestershoef;5403EK;5403EK;96;24;4533;2015
Rentmeestershoef;5403EL;5403EL;100;19;3748;2015
Landschrijversveld;5403EM;5403EM;94;18;5337;2015
Landschrijversveld;5403EN;5403EN;100;27;3804;2015
Landschrijversveld;5403EP;5403EP;100;10;5759;2015
Landschrijversveld;5403ER;5403ER;86;22;4255;2015
Drossaard;5403ES;5403ES;100;20;10603;2015
Drossaard;5403ET;5403EV;100;16;13453;2015
Schepenhoek;5403GA;5403GA;97;29;2762;2015
Schepenhoek;5403GB;5403GB;100;21;3001;2015
Schepenhoek;5403GC;5403GC;100;23;2989;2015
Schepenhoek;5403GD;5403GD;100;25;2680;2015
Schepenhoek;5403GE;5403GE;100;23;3049;2015
Schepenhoek;5403GG;5403GG;100;20;2716;2015
Eikenwal;5403KB;5403KB;100;27;2713;2015
Eikenwal;5403KC;5403KC;100;22;2355;2015
Eikenwal;5403KD;5403KD;98;56;3798;2015
Eikenwal;5403KE;5403KE;100;27;2419;2015
Eikenwal;5403KG;5403KG;100;28;3247;2015
Eikenwal;5403KH;5403KH;100;12;2518;2015
Eikenwal;5403KJ;5403KJ;100;12;1743;2015
Eikenwal;5403KK;5403KK;100;24;2166;2015
den Brier;5403KL;5403KM;100;31;3987;2015
den Brier;5403KN;5403KN;95;22;4160;2015
den Brier;5403KP;5403KS;100;35;4085;2015
Morene;5403KT;5403KV;96;28;3938;2015
Morene;5403KW;5403KW;100;14;4011;2015
Morene;5403KX;5403KX;100;10;4430;2015
Morene;5403KZ;5403KZ;97;30;3341;2015
Hurk;5403LA;5403LA;92;13;4567;2015
Hurk;5403LB;5403LB;94;16;4713;2015
Hurk;5403LC;5403LD;84;19;5978;2015
Breukrand;5403LE;5403LE;90;10;7653;2015
Breukrand;5403LG;5403LG;96;27;4474;2015
Breukrand;5403LH;5403LH;90;30;4190;2015
Breukrand;5403LJ;5403LJ;100;12;5677;2015
Heufkens;5403LK;5403LM;96;26;4786;2015
Heufkens;5403LN;5403LN;100;14;3438;2015
Heufkens;5403LP;5403LR;100;22;3607;2015
Heufkens;5403LS;5403LS;100;14;3905;2015
Heufkens;5403LT;5403LV;100;25;5815;2015
Heufkens;5403LW;5403LW;95;19;3807;2015
Stoffels;5403NA;5403NC;94;18;7900;2015
Stoffels;5403ND;5403ND;100;14;6337;2015
Stoffels;5403NE;5403NE;94;18;6885;2015
Stoffels;5403NG;5403NG;96;26;6548;2015
Stadrijk;5403NH;5403NH;100;18;5981;2015
Stadrijk;5403NJ;5403NJ;82;11;7826;2015
Stadrijk;5403NK;5403NK;89;18;7667;2015
Hoevenseweg;5403PA;5403PA;100;21;8334;2015
Artillerieweg;5403PB;5403PB;94;17;9294;2015
Klantstraat;5403PD;5403PD;96;24;7083;2015
Vlasstraat;5403PE;5403PG;96;27;5988;2015
Krijten;5403PH;5403PH;100;24;5714;2015
Heufkensweg;5403PJ;5403PJ;100;13;5623;2015
Krijten;5403PK;5403PK;96;24;4097;2015
Krijten;5403PL;5403PL;90;21;4615;2015
Wijsthoek;5403RA;5403RA;100;28;3693;2015
Wijsthoek;5403RB;5403RB;100;20;3440;2015
Wijsthoek;5403RC;5403RC;100;20;3377;2015
Wijsthoek;5403RD;5403RD;100;19;4334;2015
Wijsthoek;5403RE;5403RE;100;23;3330;2015
Wijsthoek;5403RG;5403RG;100;25;3362;2015
Wijsthoek;5403RH;5403RH;100;29;3787;2015
Wijsthoek;5403RJ;5403RJ;96;24;2971;2015
Wijsthoek;5403RK;5403RK;100;24;4342;2015
Wijsthoek;5403RL;5403RL;100;17;3687;2015
Vaarzenhof;5403TA;5403TA;95;19;3046;2015
Vaarzenhof;5403TB;5403TB;94;17;3319;2015
Vaarzenhof;5403TC;5403TC;92;24;3300;2015
Vaarzenhof;5403TD;5403TD;100;16;3536;2015
Vaarzenhof;5403TE;5403TE;100;11;4226;2015
Vaarzenhof;5403TG;5403TG;100;15;3922;2015
Raam;5403TH;5403TH;100;21;3022;2015
Raam;5403TJ;5403TJ;100;16;3277;2015
Raam;5403TK;5403TL;100;25;3826;2015
Raam;5403TM;5403TM;100;15;3676;2015
Raam;5403TN;5403TN;100;15;4231;2015
Raam;5403TP;5403TP;100;10;3443;2015
Raam;5403TR;5403TR;100;14;4495;2015
Raam;5403TS;5403TS;100;19;3919;2015
Vaarzenhof;5403TT;5403TT;97;39;3593;2015
Raamsingel;5403TX;5403TX;100;34;5005;2015
Raamsingel;5403TZ;5403TZ;100;28;4404;2015
Wachtendonk;5403VA;5403VA;100;21;3533;2015
Wachtendonk;5403VB;5403VB;100;22;3205;2015
Wachtendonk;5403VC;5403VC;95;22;3365;2015
Wachtendonk;5403VD;5403VD;100;13;3237;2015
Bijland;5403VH;5403VH;100;22;3212;2015
Bijland;5403VJ;5403VJ;100;23;3259;2015
Bijland;5403VK;5403VK;97;39;3566;2015
Bijland;5403VL;5403VL;100;23;3087;2015
Bijland;5403VM;5403VM;100;25;4043;2015
Raamhof;5403VN;5403VR;100;50;4239;2015
Wilack;5403VS;5403VS;100;24;4141;2015
Wilack;5403VT;5403VT;85;20;4260;2015
Wilack;5403VV;5403VV;89;18;4262;2015
Wilack;5403VW;5403VW;94;18;3589;2015
Raampoort;5403VX;5403VX;100;16;3434;2015
Sieberg;5403WB;5403WB;100;43;2069;2015
Sieberg;5403WC;5403WC;94;18;3758;2015
Sieberg;5403WD;5403WD;100;15;3940;2015
Sieberg;5403WE;5403WE;92;12;4520;2015
Sieberg;5403WG;5403WG;100;19;3793;2015
Sieberg;5403WH;5403WH;100;21;3441;2015
Sieberg;5403WJ;5403WJ;100;17;3228;2015
Sieberg;5403WK;5403WK;100;26;3290;2015
Sieberg;5403WL;5403WL;93;29;4294;2015
Bermershof;5403WN;5403WN;100;25;4348;2015
Bermershof;5403WP;5403WP;95;19;3894;2015
Bermershof;5403WR;5403WR;100;24;3983;2015
Bermershof;5403WS;5403WS;100;26;3527;2015
Bermershof;5403WT;5403WT;100;27;3845;2015
Bermershof;5403WV;5403WV;100;20;3730;2015
Bermershof;5403WX;5403WX;100;34;2766;2015
Bermershof;5403WZ;5403WZ;93;28;4189;2015
Germenzeel;5403XA;5403XA;100;22;3287;2015
Germenzeel;5403XB;5403XB;100;24;3092;2015
Germenzeel;5403XC;5403XC;100;24;4213;2015
Germenzeel;5403XD;5403XD;100;23;6536;2015
Germenzeel;5403XE;5403XE;100;16;3068;2015
Efferen;5403XJ;5403XJ;100;21;3431;2015
Lauwere;5403XK;5403XK;88;32;3097;2015
Lauwere;5403XL;5403XL;100;14;3517;2015
Efferen;5403XM;5403XM;100;32;3304;2015
Efferen;5403XN;5403XN;100;21;3141;2015
Efferen;5403XP;5403XP;100;23;2614;2015
Lauwere;5403XS;5403XS;94;36;3506;2015
't Diepe;5404KA;5404KA;92;12;4711;2015
't Diepe;5404KB;5404KB;92;13;4789;2015
Speelweide;5404KC;5404KC;100;13;8452;2015
Speelweide;5404KD;5404KD;82;17;6238;2015
Vlinderslag;5404KE;5404KH;86;21;4504;2015
Zonneweide;5404KJ;5404KK;100;24;6913;2015
De Vang;5404KL;5404KL;100;14;3103;2015
De Wieken;5404KM;5404KM;96;24;6224;2015
De Wieken;5404KN;5404KN;100;26;2783;2015
Runmolen;5404KP;5404KP;94;18;6191;2015
Runmolen;5404KT;5404KT;100;31;4023;2015
Velmolenweg;5404LB;5404LB;93;40;6680;2015
Velmolenweg;5404LC;5404LC;100;28;3150;2015
Velmolenweg;5404LD;5404LD;97;33;6796;2015
Oude Maasstraat;5404LE;5404LE;96;26;6198;2015
Oude Maasstraat;5404LG;5404LG;83;23;11260;2015
Eegt;5404LK;5404LK;83;12;2831;2015
Eegt;5404LL;5404LL;88;24;4401;2015
Hoogzoggel;5404LM;5404LM;100;25;3484;2015
Hoogzoggel;5404LN;5404LN;100;13;2773;2015
Hoogzoggel;5404LP;5404LP;100;30;1601;2015
Hoogzoggel;5404LR;5404LR;94;16;3448;2015
Hoogzoggel;5404LS;5404LS;100;53;2905;2015
Koreschoep;5404LV;5404LV;69;13;2711;2015
Ploeg;5404LW;5404LW;100;26;2976;2015
Ploeg;5404LX;5404LX;100;16;4042;2015
Ploeg;5404LZ;5404LZ;100;20;3599;2015
Horgetouw;5404MA;5404MB;100;14;5768;2015
Bertrandhof;5404MC;5404MC;100;13;3505;2015
Bertrandhof;5404MD;5404MD;97;32;3025;2015
Dertienvat;5404ME;5404MH;86;29;4036;2015
Dertienvat;5404MJ;5404MJ;100;12;3544;2015
Morkolf;5404MK;5404MK;100;21;4016;2015
Hekkeslag;5404ML;5404ML;100;28;3895;2015
Hekkeslag;5404MN;5404MN;96;24;4653;2015
Wetstrikkel;5404MP;5404MP;95;20;4811;2015
Den Dries;5404MR;5404MR;100;20;3496;2015
Zicht;5404MS;5404MT;95;22;2696;2015
Kazernestraat;5404NA;5404NA;100;47;2337;2015
Zoggelstraat;5404NC;5404NC;100;12;5987;2015
Maasstraat;5404ND;5404ND;96;24;7402;2015
Veilingstraat;5404NE;5404NE;100;43;2938;2015
Parklaan;5404NH;5404NK;100;29;17123;2015
Sportlaan;5404NL;5404NN;100;39;4996;2015
Abdijlaan;5404NP;5404NP;100;30;2776;2015
Abdijlaan;5404NR;5404NR;100;14;2655;2015
Veilingstraat;5404NS;5404NV;98;83;3228;2015
Veilingstraat;5404NX;5404NX;100;62;2678;2015
Veilingstraat;5404NZ;5404NZ;100;23;3602;2015
Rondeel;5404PA;5404PA;96;23;3835;2015
Rondeel;5404PB;5404PB;92;13;4377;2015
Spitsen;5404PC;5404PC;100;17;5981;2015
Den Akker;5404PD;5404PD;100;30;5291;2015
Den Akker;5404PE;5404PE;100;13;4839;2015
Ploegdrijverke;5404PH;5404PH;100;10;4949;2015
Ploegdrijverke;5404PJ;5404PJ;92;13;2987;2015
Toetimmerke;5404PK;5404PL;100;23;4544;2015
Klemvogel;5404PM;5404PM;100;22;4555;2015
Klemvogel;5404PN;5404PN;91;23;3263;2015
Hulstheuvel;5404PP;5404PP;100;23;6599;2015
Hulstheuvel;5404PR;5404PR;64;11;6010;2015
Gruunsel;5404PS;5404PS;85;26;5185;2015
Gruunsel;5404PT;5404PT;83;18;3439;2015
Vunderke;5404PW;5404PW;81;21;5724;2015
Industrielaan;5405AA;5405AA;100;13;46769;2015
Loopkantstraat;5405AB;5405AC;100;19;25813;2015
Energielaan;5405AD;5405AD;100;10;26700;2015
Handelslaan;5405AE;5405AE;100;11;13971;2015
Nijverheidsstraat;5405AG;5405AK;97;29;32271;2015
Linie;5405AM;5405AN;100;26;11207;2015
Vlijtstraat;5405AP;5405AT;97;32;16892;2015
Rietdekkerstraat;5405AV;5405BE;100;40;14721;2015
Weverstraat;5405BG;5405BM;100;36;24640;2015
Weverstraat;5405BN;5405BP;100;21;22059;2015
Zadelmakerstraat;5405BR;5405BS;97;31;14983;2015
Loopkantstraat;5405NB;5405NB;95;40;17945;2015
Protonenlaan;5405NC;5405NE;100;27;10430;2015
Neutronenlaan;5405NG;5405NH;100;36;7747;2015
Udenseweg;5405NJ;5405PD;100;19;19216;2015
Wislaan;5406AA;5406AA;99;67;3722;2015
Wislaan;5406AC;5406AC;99;72;4000;2015
Wislaan;5406AD;5406AD;94;79;5324;2015
Sesterlaan;5406AE;5406AE;100;10;4116;2015
Karrevracht;5406AG;5406AG;95;20;4881;2015
Hoenderbosplein;5406AH;5406AH;99;72;2628;2015
Hoenderbosplein;5406AJ;5406AJ;100;46;3304;2015
Garf;5406AK;5406AK;100;32;4245;2015
Lentemorgen;5406AL;5406AL;89;19;6172;2015
Lentemorgen;5406AM;5406AM;96;24;7257;2015
Korenmijt;5406AN;5406AN;98;50;4504;2015
Krombos;5406AP;5406AP;90;41;6306;2015
Haffel;5406AR;5406AR;95;20;4789;2015
Hupsel;5406AS;5406AS;95;20;5005;2015
Muffelke;5406AT;5406AT;94;18;4572;2015
Virrel;5406AV;5406AV;94;16;4698;2015
Schoof;5406AW;5406AZ;95;22;4946;2015
Muntmeester;5406BA;5406BA;100;86;2999;2015
Griffioen;5406BB;5406BB;100;23;3984;2015
Vuurijzer;5406BD;5406BD;90;39;4095;2015
Florijn;5406BE;5406BE;88;25;4668;2015
Ducaton;5406BG;5406BG;100;13;4959;2015
Muntmeester;5406BH;5406BH;99;126;3990;2015
Muntmeester;5406BJ;5406BJ;99;88;3313;2015
Muntmeester;5406BK;5406BK;100;55;3693;2015
Graveur;5406BP;5406BP;94;17;7556;2015
Waardijn;5406BS;5406BS;100;10;5806;2015
Rozenobel;5406BT;5406BV;89;18;6401;2015
Prinsendaalder;5406BW;5406BW;92;13;3696;2015
Rozebeker;5406BX;5406BX;95;38;2908;2015
Statendaalder;5406BZ;5406BZ;90;10;5942;2015
Schepel;5406CA;5406CB;85;27;5739;2015
Malder;5406CC;5406CC;96;25;4163;2015
Vim;5406CD;5406CE;96;24;5079;2015
Stalreep;5406CG;5406CH;100;34;4122;2015
Langgevel;5406CJ;5406CJ;100;17;4090;2015
Kortgevel;5406CK;5406CK;100;10;3337;2015
Gording;5406CL;5406CL;92;24;3149;2015
Gording;5406CM;5406CM;97;30;4530;2015
Gording;5406CN;5406CN;100;50;5016;2015
Gebont;5406CP;5406CP;88;16;5925;2015
Gulden;5406DA;5406DA;100;25;5830;2015
Pattagon;5406DB;5406DB;96;23;3085;2015
Reaal;5406DD;5406DD;100;14;2962;2015
Schelling;5406DG;5406DG;96;48;3404;2015
Kroon;5406DH;5406DH;100;20;3008;2015
Kroon;5406DJ;5406DJ;100;46;3054;2015
Helmteken;5406DK;5406DK;100;21;4925;2015
Hellebaard;5406DL;5406DL;73;11;5661;2015
Eikenheuvelweg;5406NA;5406NA;97;29;9947;2015
Ruitersweg;5406NB;5406NG;95;44;11813;2015
Morgenweg;5406NJ;5406NJ;90;31;5946;2015
Rondweg;5406NK;5406NN;91;34;13969;2015
Kooldertweg;5406NP;5406NR;100;14;20350;2015
Verlengde Velmolen;5406NS;5406NT;100;13;24481;2015
Moleneindstraat;5406NX;5406PC;81;16;16635;2015
Egelweg;5406PD;5406PE;96;23;11106;2015
Lageburchtweg;5406PG;5406PH;92;24;10448;2015
Schouwstraat;5406PJ;5406PL;100;18;9123;2015
Steeuwichtweg;5406PM;5406PP;97;31;7951;2015
Strikseweg;5406PR;5406PS;94;16;12697;2015
Nistelrodeseweg;5406PT;5406PT;100;14;15326;2015
Rattenbosweg;5406PZ;5406SC;100;15;6912;2015
Knipperdul;5406TA;5406TB;91;32;15028;2015
Veghelsedijk;5406TC;5406TE;94;18;15003;2015
Hoogstraat;5406TH;5406TH;96;25;26379;2015
Derptweg;5406TJ;5406TM;85;27;12826;2015
Bergweg;5406TN;5406TN;100;10;5149;2015
Schansweg;5406TP;5406TP;100;17;5162;2015
Oude Bosweg;5406TR;5406TS;100;22;17494;2015
Raktweg;5406TV;5406TV;91;11;10829;2015
Voortweg;5406TW;5406VG;93;88;8938;2015
Udenoord;5406VH;5406VH;73;15;1998;2015
Slabroekseweg;5406VK;5406VK;100;14;4058;2015
Kraaienweg;5406VL;5406VR;96;25;9316;2015
Hultjeweg;5406VS;5406VT;100;13;3893;2015
Korte Erikaweg;5406VV;5406VW;95;21;8130;2015
Zevenmorgenstraat;5406VX;5406XH;98;59;12592;2015
Patersweg;5406XJ;5406XJ;100;14;31798;2015
Wilsfoort;5406XK;5406XP;98;46;21598;2015
Westwijk;5406XS;5406XS;93;14;12311;2015
Oostwijk;5406XT;5406XT;96;28;22094;2015
