STRAATNAAM;POSTCODE_VAN;POSTCODE_TOT;LEVERINGSRICHTING_PERC;AANSLUITINGEN_AANTAL;SJV_GEMIDDELD;Year
troepmap  Piusplein;5252 XX;5253 AA;84;25;5596;2016
Groeneweg;5401 AA;5401 AA;96;24;2765;2016
Groeneweg;5401 AB;5401 AB;94;16;4545;2016
Lambertusstraat;5401 AC;5401 AC;100;20;3344;2016
Nieuburgstraat;5401 AD;5401 AD;100;14;2920;2016
Hooihofstraat;5401 AE;5401 AE;96;23;4693;2016
Bisschop Bekkerslaan;5401 AG;5401 AG;89;18;3915;2016
Paus Joanneslaan;5401 AH;5401 AH;100;17;4733;2016
Helenastraat;5401 AJ;5401 AJ;100;20;3885;2016
Helenastraat;5401 AK;5401 AL;92;50;3497;2016
Helenastraat;5401 AM;5401 AM;100;22;2929;2016
St. Annastraat;5401 AN;5401 AN;100;27;7732;2016
St. Annastraat;5401 AP;5401 AP;100;25;3117;2016
Waterstraat;5401 AR;5401 AR;100;15;3349;2016
Rooijsestraat;5401 AS;5401 AT;100;63;6807;2016
Smidsstraat;5401 AV;5401 AV;100;20;2223;2016
Kerkakkerstraat;5401 AW;5401 AW;100;15;2917;2016
Kerkakkerstraat;5401 AX;5401 AX;100;35;2303;2016
Vorstenburg;5401 AZ;5401 AZ;100;19;9990;2016
St. Janstraat;5401 BA;5401 BA;100;22;15020;2016
St. Janstraat;5401 BB;5401 BB;100;12;38013;2016
Kerkstraat;5401 BC;5401 BC;93;15;8803;2016
Kerkstraat;5401 BD;5401 BD;100;23;15334;2016
St. Janstraat;5401 BE;5401 BK;100;71;6623;2016
Deken de Louwstraat;5401 BM;5401 BM;91;35;4161;2016
Missielaan;5401 BN;5401 BN;100;34;4513;2016
Missielaan;5401 BP;5401 BP;93;15;4205;2016
Missielaan;5401 BR;5401 BR;100;15;3585;2016
Jan van Oortstraat;5401 BT;5401 BW;94;31;3994;2016
Peerke Verkuijlenstraat;5401 BX;5401 BZ;100;22;4379;2016
Birgittinessenstraat;5401 CA;5401 CA;100;15;6007;2016
Oranjestraat;5401 CB;5401 CB;100;38;4921;2016
Wilhelminastraat;5401 CC;5401 CC;96;26;4368;2016
Wilhelminastraat;5401 CD;5401 CD;100;24;2961;2016
Wilhelminastraat;5401 CE;5401 CE;96;25;3665;2016
Wilhelminastraat;5401 CG;5401 CG;100;61;2343;2016
Wilhelminastraat;5401 CH;5401 CH;97;114;3028;2016
Irenestraat;5401 CJ;5401 CJ;93;27;3388;2016
Beatrixhof;5401 CK;5401 CK;100;24;4563;2016
Beatrixhof;5401 CL;5401 CL;100;23;4004;2016
Beatrixhof;5401 CM;5401 CM;96;24;4633;2016
Beatrixhof;5401 CN;5401 CN;100;23;4351;2016
Beatrixhof;5401 CP;5401 CP;100;24;3958;2016
Beatrixhof;5401 CR;5401 CR;100;23;3957;2016
Beatrixhof;5401 CS;5401 CS;96;25;4545;2016
Beatrixhof;5401 CT;5401 CT;100;24;4561;2016
Christinastraat;5401 CZ;5401 CZ;92;13;3439;2016
Willem-Alexanderhof;5401 DA;5401 DA;92;26;4335;2016
Willem-Alexanderhof;5401 DB;5401 DB;100;24;2736;2016
Willem-Alexanderhof;5401 DC;5401 DC;100;25;2565;2016
Willem-Alexanderhof;5401 DD;5401 DD;100;23;3273;2016
Willem-Alexanderhof;5401 DE;5401 DE;96;25;3899;2016
Willem-Alexanderhof;5401 DG;5401 DG;100;24;2744;2016
Petrushof;5401 DH;5401 DX;100;16;14026;2016
Slotpad;5401 DZ;5401 EA;100;49;3612;2016
Mgr. Bosstraat;5401 EB;5401 EB;86;14;3830;2016
Kapelstraat;5401 EC;5401 EC;100;10;35354;2016
Burgemeester Buskensstr;5401 ED;5401 ED;100;43;4074;2016
Burgemeester Buskensstr;5401 EE;5401 EE;92;37;3810;2016
Kapelstraat;5401 EG;5401 EG;100;19;2257;2016
Kapelstraat;5401 EH;5401 EH;100;46;2423;2016
Markt;5401 EJ;5401 EK;100;29;1656;2016
Aloysiusstraat;5401 EL;5401 EL;100;35;2086;2016
Neringstraat-West;5401 GB;5401 GC;97;39;18120;2016
Galerij;5401 GD;5401 GD;100;27;18611;2016
Marktstraat;5401 GE;5401 GE;100;34;16635;2016
Marktstraat;5401 GG;5401 GG;94;18;16447;2016
Marktstraat;5401 GH;5401 GH;95;20;26101;2016
Zuiderpassage;5401 GJ;5401 GL;100;39;9885;2016
Promenade;5401 GM;5401 GM;71;68;6536;2016
Markt;5401 GN;5401 GN;100;52;13033;2016
Markt;5401 GP;5401 GP;100;27;25111;2016
Sacramentsweg;5401 GR;5401 GR;100;41;16373;2016
Brabantplein;5401 GS;5401 GS;100;50;7457;2016
Pastoor Spieringsstraat;5401 GT;5401 GT;98;115;3920;2016
Pastoor Spieringsstraat;5401 GV;5401 GV;100;51;3489;2016
Kastanjeweg;5401 GW;5401 GW;99;86;4832;2016
Koopmanstraat;5401 GX;5401 GX;100;25;3387;2016
Biggenstraat;5401 HA;5401 HA;100;37;2556;2016
Nieuwe Markt;5401 HB;5401 HB;100;63;2921;2016
Julianastraat;5401 HC;5401 HC;100;28;3867;2016
Julianastraat;5401 HD;5401 HD;100;25;4308;2016
Kazernestraat;5401 HE;5401 HG;100;25;2872;2016
Julianastraat;5401 HH;5401 HH;100;24;1517;2016
Julianastraat;5401 HJ;5401 HJ;100;21;2276;2016
Velmolenweg;5401 HL;5401 HL;100;46;4046;2016
Biggenstraat;5401 HM;5401 HM;100;81;1988;2016
de Misse;5401 HT;5401 HT;100;19;4700;2016
Oranjepassage;5401 HV;5401 HW;100;20;5532;2016
Mondriaanplein;5401 HX;5401 HX;100;48;9658;2016
Sacramentsweg;5401 HZ;5401 HZ;100;41;3897;2016
Bitswijk;5401 JA;5401 JA;96;24;11278;2016
Bitswijk;5401 JB;5401 JB;97;38;7765;2016
Ringbaan-Noord;5401 JE;5401 JE;88;32;3594;2016
Noorderhof;5401 JG;5401 JG;100;19;3746;2016
Kastanjeweg;5401 JP;5401 JP;100;12;2610;2016
Pitstraat;5401 KP;5401 KP;100;10;3324;2016
Busselstraat;5401 KR;5401 KR;100;21;3718;2016
Meikers;5401 KS;5401 KW;100;27;3100;2016
Houtkers;5401 KX;5401 KX;100;13;3971;2016
Houtkers;5401 KZ;5401 KZ;100;18;2769;2016
Morel;5401 LA;5401 LA;97;39;2550;2016
Morel;5401 LB;5401 LB;100;11;3885;2016
Morel;5401 LC;5401 LC;97;33;3234;2016
Morel;5401 LD;5401 LD;100;24;3932;2016
Morel;5401 LE;5401 LE;94;33;2889;2016
Kroezel;5401 LG;5401 LG;100;19;3519;2016
Mulderspad;5401 LH;5401 LH;100;17;2894;2016
Wijnkers;5401 LJ;5401 LJ;100;25;3101;2016
Wijnkers;5401 LK;5401 LK;100;25;3785;2016
Boskriek;5401 LL;5401 LL;100;18;3557;2016
Boskriek;5401 LM;5401 LM;93;27;3834;2016
Boskriek;5401 LN;5401 LN;96;24;3280;2016
Boskriek;5401 LP;5401 LP;100;14;3587;2016
Merketon;5401 LR;5401 LR;100;30;4607;2016
Merketon;5401 LS;5401 LS;83;18;5619;2016
Bellefleur;5401 LT;5401 LT;100;22;3986;2016
Sterappel;5401 LV;5401 LV;88;26;4101;2016
Sterappel;5401 LW;5401 LW;100;34;3205;2016
Goudrenet;5401 LX;5401 LX;100;29;2900;2016
Goudrenet;5401 LZ;5401 LZ;97;31;3903;2016
Burenstraat;5401 NA;5401 NA;97;30;2127;2016
Nonnenveld;5401 NC;5401 NC;100;33;2132;2016
Nonnenveld;5401 ND;5401 NE;100;34;1917;2016
Nonnenveld;5401 NG;5401 NG;100;25;2196;2016
Nonnenveld;5401 NH;5401 NH;100;30;2410;2016
Nonnenveld;5401 NJ;5401 NJ;100;31;1901;2016
Abdijhof;5401 NK;5401 NK;100;29;2217;2016
Abdijlaan;5401 NL;5401 NL;100;17;2799;2016
Abdijlaan;5401 NM;5401 NM;100;34;2056;2016
Abdijlaan;5401 NN;5401 NN;100;36;2178;2016
Abdijlaan;5401 NP;5401 NP;100;22;1767;2016
Oud Moleneind;5401 NR;5401 PA;92;26;3665;2016
Veghelsedijk;5401 PB;5401 PB;100;20;9623;2016
Groenewoud;5401 PC;5401 PC;91;33;4494;2016
Schepersweg;5401 PD;5401 PD;89;19;4009;2016
Vijfhuizerweg;5401 PE;5401 PE;92;25;5780;2016
Vijfhuizerweg;5401 PG;5401 PG;100;14;4466;2016
Broekmorgen;5401 PJ;5401 PJ;100;54;3542;2016
Broekmorgen;5401 PK;5401 PK;100;37;3931;2016
de Cour;5401 XS;5401 XS;100;32;3069;2016
Walterus Pijnenborghhof;5401 XT;5401 XT;100;40;3071;2016
Odiliastraat;5401 XV;5401 XV;100;26;2195;2016
Odiliastraat;5401 XW;5401 XW;100;25;6122;2016
Odiliastraat;5401 XX;5401 XX;100;24;2297;2016
Odiliastraat;5401 XZ;5401 XZ;100;17;2418;2016
Ringbaan-Noord;5401 ZA;5401 ZA;96;28;2954;2016
Verduijnstraat;5401 ZB;5401 ZB;100;18;2585;2016
Pastoor van Doornstraat;5401 ZC;5401 ZC;100;28;3189;2016
Pastoor van Doornstraat;5401 ZD;5401 ZD;100;25;3143;2016
Kersenstraat;5401 ZE;5401 ZE;100;19;3059;2016
Bogerdstraat;5401 ZG;5401 ZG;100;17;3606;2016
Bogerdstraat;5401 ZH;5401 ZH;100;20;3150;2016
Bogerdstraat;5401 ZJ;5401 ZJ;95;19;3334;2016
Bogerdstraat;5401 ZK;5401 ZK;100;18;3087;2016
Peperstraat;5401 ZL;5401 ZL;100;22;3319;2016
Peperstraat;5401 ZM;5401 ZM;100;12;2939;2016
Bosschebaan;5401 ZN;5401 ZN;92;24;3330;2016
Bosschebaan;5401 ZP;5401 ZP;100;39;2395;2016
Aalstweg;5401 ZR;5401 ZR;100;24;4276;2016
Oudekerkpad;5401 ZS;5401 ZT;100;37;2291;2016
Standerd;5401 ZV;5401 ZX;100;28;3935;2016
Odiliastraat;5401 ZZ;5401 ZZ;100;73;3285;2016
Cellostraat;5402 AA;5402 AA;96;25;3826;2016
Cellostraat;5402 AB;5402 AB;86;14;3436;2016
Cellostraat;5402 AC;5402 AC;100;24;3232;2016
Cellostraat;5402 AD;5402 AD;100;15;2966;2016
Cellostraat;5402 AE;5402 AE;92;13;3530;2016
Basstraat;5402 AG;5402 AG;96;26;3113;2016
Citerstraat;5402 AH;5402 AH;100;27;2807;2016
Altstraat;5402 AJ;5402 AJ;100;14;2675;2016
Altstraat;5402 AK;5402 AK;96;27;3294;2016
Spinetstraat;5402 AL;5402 AL;100;14;3265;2016
Spinetstraat;5402 AM;5402 AM;100;18;3007;2016
Spinetstraat;5402 AN;5402 AN;100;17;3459;2016
Luitstraat;5402 AP;5402 AP;100;23;3887;2016
Luitstraat;5402 AR;5402 AR;100;20;2968;2016
Luitstraat;5402 AS;5402 AS;100;21;2939;2016
Vioolstraat;5402 AT;5402 AT;100;10;3133;2016
Vioolstraat;5402 AV;5402 AV;100;23;2731;2016
Vioolstraat;5402 AW;5402 AW;100;18;3258;2016
Cimbaallaan;5402 AX;5402 AX;96;25;4034;2016
Cimbaallaan;5402 AZ;5402 AZ;100;25;4562;2016
Harmoniumlaan;5402 BA;5402 BA;92;12;4218;2016
Schalmeilaan;5402 BB;5402 BB;90;10;3970;2016
Klarinetstraat;5402 BC;5402 BC;94;16;4286;2016
Klarinetstraat;5402 BD;5402 BD;100;12;3722;2016
Klarinetstraat;5402 BE;5402 BE;92;13;3170;2016
Klavecimbellaan;5402 BG;5402 BH;90;21;4687;2016
Harmoniehof;5402 BJ;5402 BJ;100;48;3000;2016
Hobostraat;5402 CB;5402 CB;100;14;3535;2016
Hobostraat;5402 CC;5402 CC;100;23;3665;2016
Saxofoonstraat;5402 CD;5402 CD;94;18;3597;2016
Saxofoonstraat;5402 CE;5402 CE;100;24;3302;2016
Saxofoonstraat;5402 CG;5402 CG;96;25;3055;2016
Saxofoonstraat;5402 CH;5402 CH;100;22;3440;2016
Accordeonstraat;5402 CJ;5402 CJ;100;29;2729;2016
Kornetstraat;5402 CK;5402 CK;100;22;3082;2016
Kornetstraat;5402 CL;5402 CL;91;22;3090;2016
Kornetstraat;5402 CM;5402 CM;100;13;2194;2016
Kornetstraat;5402 CN;5402 CP;100;36;3159;2016
Muziekplein;5402 CR;5402 CR;100;12;5317;2016
Muziekplein;5402 CS;5402 CS;100;17;4658;2016
Muziekplein;5402 CT;5402 CT;100;24;1740;2016
Muziekplein;5402 CV;5402 CV;100;32;4294;2016
Mandolinestraat;5402 CW;5402 CW;100;15;3467;2016
Mandolinestraat;5402 CX;5402 CX;100;15;3832;2016
Mandolinestraat;5402 CZ;5402 CZ;100;16;3438;2016
Banjostraat;5402 DA;5402 DA;100;24;3266;2016
Gitaarstraat;5402 DB;5402 DB;92;12;3236;2016
Gitaarstraat;5402 DC;5402 DC;100;26;3372;2016
Harpstraat;5402 DD;5402 DD;100;23;3975;2016
Harpstraat;5402 DE;5402 DE;100;12;1835;2016
Harpstraat;5402 DG;5402 DG;100;18;3255;2016
Pianostraat;5402 DH;5402 DH;100;20;4061;2016
Pianostraat;5402 DJ;5402 DJ;94;17;4355;2016
Piusplein;5402 EA;5402 EA;100;69;3530;2016
Grootveldstraat;5402 EB;5402 EB;100;35;3404;2016
Nassaustraat;5402 EC;5402 EC;100;22;2376;2016
Heinsbergenstraat;5402 ED;5402 ED;92;26;5488;2016
Heinsbergenstraat;5402 EE;5402 EE;100;17;2177;2016
Heinsbergenstraat;5402 EG;5402 EG;100;16;6838;2016
Land van Ravensteinstr;5402 EH;5402 EH;100;21;4066;2016
Land van Ravensteinstr;5402 EJ;5402 EJ;94;18;4099;2016
Land van Ravensteinstr;5402 EK;5402 EK;100;31;3750;2016
Rode Akker;5402 EM;5402 EM;100;20;1634;2016
Rode Akker;5402 EN;5402 EN;100;30;1607;2016
Ereprijsstraat;5402 GA;5402 GA;100;18;11035;2016
Prof. Pulsersstraat;5402 GB;5402 GD;97;30;3627;2016
Prof. Pulsersstraat;5402 GE;5402 GE;95;19;3826;2016
Prior van Milstraat;5402 GG;5402 GG;100;16;2729;2016
Prior van Milstraat;5402 GH;5402 GH;100;36;3463;2016
Stationstraat;5402 GJ;5402 GM;96;27;5333;2016
Burgemeester Thijssenstr;5402 GN;5402 GN;100;32;1900;2016
Prior van Milstraat;5402 GP;5402 GR;100;28;11465;2016
Vaaldriessenstraat;5402 GS;5402 HB;100;31;4947;2016
Trompetstraat;5402 HC;5402 HC;91;22;3743;2016
Trombonestraat;5402 HD;5402 HD;100;14;2669;2016
Tubastraat;5402 HE;5402 HE;100;28;1646;2016
Xylofoonstraat;5402 HG;5402 HG;96;24;2966;2016
Paukenstraat;5402 HH;5402 HH;89;19;6000;2016
Paukenstraat;5402 HJ;5402 HJ;90;20;3636;2016
Paukenstraat;5402 HK;5402 HK;95;20;4749;2016
Paukenstraat;5402 HL;5402 HL;100;22;4308;2016
Steenovenstraat;5402 HM;5402 HN;100;22;7157;2016
Hoornstraat;5402 HP;5402 HP;91;22;3698;2016
Bugelstraat;5402 HR;5402 HR;96;24;2944;2016
Dwarsfluitstraat;5402 HS;5402 HS;100;18;3632;2016
Dwarsfluitstraat;5402 HT;5402 HT;100;15;3286;2016
Dwarsfluitstraat;5402 HV;5402 HV;100;19;3267;2016
Tamboerijnstraat;5402 HW;5402 HW;100;15;3681;2016
Tamboerijnstraat;5402 HX;5402 HX;100;15;2912;2016
Symfonie;5402 HZ;5402 HZ;100;18;3935;2016
Triangelstraat;5402 JA;5402 JA;100;13;3346;2016
Triangelstraat;5402 JB;5402 JB;100;26;4068;2016
President Kennedylaan;5402 KA;5402 KA;96;25;3343;2016
President Kennedylaan;5402 KB;5402 KB;96;53;3296;2016
President Kennedylaan;5402 KC;5402 KC;94;32;4818;2016
President Kennedylaan;5402 KD;5402 KD;85;13;18895;2016
Wolfgangstraat;5402 KE;5402 KK;92;39;3507;2016
Kleefsestraat;5402 KL;5402 KL;100;21;2817;2016
Herpenstraat;5402 KM;5402 KM;100;15;3331;2016
Herpenstraat;5402 KN;5402 KN;100;22;2974;2016
Herpenstraat;5402 KP;5402 KP;90;10;2647;2016
Herpenstraat;5402 KR;5402 KR;100;21;6015;2016
Brandenburgstraat;5402 KS;5402 KS;100;30;3669;2016
Brandenburgstraat;5402 KT;5402 KT;96;23;3272;2016
Salmstraat;5402 KV;5402 KV;100;20;3485;2016
Salmstraat;5402 KW;5402 KW;100;15;3726;2016
Salmstraat;5402 KX;5402 KX;100;15;3594;2016
Cuijkstraat;5402 KZ;5402 KZ;95;22;3188;2016
Violierstraat;5402 LA;5402 LA;96;25;15541;2016
Duizendschoonstraat;5402 LB;5402 LC;92;25;3343;2016
Duizendschoonstraat;5402 LD;5402 LD;100;22;3486;2016
Duizendschoonstraat;5402 LE;5402 LE;96;27;3051;2016
Oliemolenstraat;5402 LG;5402 LG;94;16;3160;2016
Oliemolenstraat;5402 LH;5402 LH;100;14;3317;2016
Oliemolenstraat;5402 LJ;5402 LJ;87;23;5580;2016
Schutboomstraat;5402 LK;5402 LK;100;14;3094;2016
Schutboomstraat;5402 LL;5402 LL;100;11;4258;2016
Vlosstraat;5402 LM;5402 LM;100;15;3358;2016
Vlosstraat;5402 LN;5402 LN;95;22;3180;2016
Mussenstraat;5402 LP;5402 LP;95;22;3631;2016
Elzenstraat;5402 LR;5402 LR;88;25;3954;2016
Schutveldstraat;5402 LS;5402 LS;89;27;3994;2016
De Geren;5402 LT;5402 LT;100;21;4071;2016
Millsebaan;5402 LV;5402 LV;94;17;5131;2016
Millsebaan;5402 LW;5402 LW;95;22;4026;2016
Klaroenlaan;5402 PA;5402 PA;95;19;4590;2016
Bazuinlaan;5402 PB;5402 PB;87;15;4624;2016
Bazuinlaan;5402 PC;5402 PC;100;12;4852;2016
Orgellaan;5402 PD;5402 PD;91;22;4410;2016
Orgellaan;5402 PE;5402 PE;69;16;4572;2016
Orgellaan;5402 PG;5402 PG;100;13;5063;2016
Reinoldstraat;5402 VA;5402 VC;98;42;5355;2016
Elisabethstraat;5402 VD;5402 VD;96;27;4498;2016
Elisabethstraat;5402 VE;5402 VE;100;14;2333;2016
Elisabethstraat;5402 VG;5402 VG;100;16;2329;2016
Valkenburgstraat;5402 VH;5402 VH;100;17;2189;2016
Valkenburgstraat;5402 VJ;5402 VJ;100;16;3085;2016
Valkenburgstraat;5402 VK;5402 VK;100;22;2545;2016
Willemstraat;5402 VL;5402 VL;100;14;3786;2016
Walravenstraat;5402 VM;5402 VM;100;20;2461;2016
Walravenstraat;5402 VN;5402 VN;95;19;2896;2016
Maatsestraat;5402 VP;5402 VP;100;26;2749;2016
Maatsestraat;5402 VR;5402 VR;100;15;3520;2016
Oude Hoevenseweg;5402 VS;5402 WG;96;24;3550;2016
Herman Linnebankhof;5402 WH;5402 WH;85;13;3515;2016
Leeuweriksweg;5402 XA;5402 XA;100;22;5485;2016
Leeuweriksweg;5402 XB;5402 XB;100;21;3390;2016
Leeuweriksweg;5402 XC;5402 XC;100;17;2639;2016
Leeuweriksweg;5402 XD;5402 XD;100;16;6211;2016
Leeuweriksweg;5402 XE;5402 XE;100;15;3153;2016
Leeuweriksweg;5402 XG;5402 XG;100;10;2896;2016
Meerloseweg;5402 XH;5402 XH;100;18;6449;2016
Anjerstraat;5402 XJ;5402 XJ;100;19;3815;2016
Narcisstraat;5402 XK;5402 XK;88;17;2495;2016
Narcisstraat;5402 XL;5402 XL;100;18;2754;2016
Narcisstraat;5402 XM;5402 XM;86;21;3066;2016
Orchideestraat;5402 XN;5402 XN;100;19;2664;2016
Alardstraat;5402 ZA;5402 ZA;95;22;2995;2016
Alardstraat;5402 ZB;5402 ZB;100;24;2375;2016
Aldetiendstraat;5402 ZC;5402 ZC;100;31;7540;2016
Tulpstraat;5402 ZD;5402 ZD;96;24;3074;2016
Hyacintstraat;5402 ZE;5402 ZG;92;25;3240;2016
Crocusstraat;5402 ZH;5402 ZJ;100;22;3135;2016
Crocusstraat;5402 ZK;5402 ZK;100;14;3729;2016
Lavendelstraat;5402 ZL;5402 ZL;100;23;3170;2016
Lavendelstraat;5402 ZM;5402 ZM;100;17;3528;2016
Lavendelstraat;5402 ZN;5402 ZN;93;14;3206;2016
Lavendelstraat;5402 ZP;5402 ZP;100;15;3119;2016
Millsebaan;5403 AA;5403 AA;98;49;6829;2016
Meerhoek;5403 AB;5403 AB;90;21;4248;2016
Meerhoek;5403 AC;5403 AC;96;23;3902;2016
Meerhoek;5403 AD;5403 AD;96;25;4495;2016
Bosveld;5403 AE;5403 AE;100;18;3939;2016
Bosveld;5403 AG;5403 AH;95;19;8014;2016
Bosveld;5403 AJ;5403 AJ;100;19;3275;2016
Bosveld;5403 AK;5403 AK;100;19;3165;2016
Bosveld;5403 AL;5403 AL;100;18;3554;2016
Bosveld;5403 AM;5403 AM;100;18;3360;2016
Bosveld;5403 AN;5403 AN;100;14;3870;2016
Bosveld;5403 AP;5403 AP;100;13;1566;2016
Bosveld;5403 AR;5403 AR;100;16;3996;2016
Bosveld;5403 AS;5403 AS;100;30;1759;2016
Bosveld;5403 AT;5403 AT;100;33;1694;2016
Keizershof;5403 BA;5403 BA;95;19;4616;2016
Keizershof;5403 BB;5403 BC;100;28;3380;2016
Keizershof;5403 BD;5403 BD;100;12;4162;2016
Keizershof;5403 BE;5403 BE;96;26;3741;2016
Keizershof;5403 BG;5403 BG;100;11;2945;2016
Keizershof;5403 BH;5403 BH;100;18;2725;2016
Keizershof;5403 BJ;5403 BJ;100;53;2830;2016
Keizershof;5403 BK;5403 BK;92;12;2925;2016
Jonkerveld;5403 BL;5403 BL;100;10;2957;2016
Jonkerveld;5403 BM;5403 BM;91;11;3365;2016
Jonkerveld;5403 BN;5403 BN;100;11;2738;2016
Jonkerveld;5403 BP;5403 BP;100;18;2707;2016
Jonkerveld;5403 BR;5403 BR;93;14;3247;2016
Jonkerveld;5403 BS;5403 BS;100;12;2723;2016
Jonkerveld;5403 BT;5403 BT;91;23;3397;2016
Hofstukken;5403 BV;5403 BW;100;70;3586;2016
Hofstukken;5403 BX;5403 BX;100;24;3589;2016
Hofstukken;5403 BZ;5403 BZ;95;66;3213;2016
Jonkerveld;5403 CB;5403 CB;89;18;4060;2016
Jonkerveld;5403 CC;5403 CC;95;20;3729;2016
Schoutenhoek;5403 EA;5403 EA;100;25;3201;2016
Schoutenhoek;5403 EB;5403 EB;100;25;3085;2016
Schoutenhoek;5403 EC;5403 EC;100;20;3336;2016
Schoutenhoek;5403 ED;5403 ED;100;22;3505;2016
Rentmeestershoef;5403 EE;5403 EE;100;27;3373;2016
Rentmeestershoef;5403 EG;5403 EG;96;27;4329;2016
Rentmeestershoef;5403 EH;5403 EH;100;27;3339;2016
Rentmeestershoef;5403 EJ;5403 EJ;100;21;3031;2016
Rentmeestershoef;5403 EK;5403 EK;96;24;4246;2016
Rentmeestershoef;5403 EL;5403 EL;100;19;3536;2016
Landschrijversveld;5403 EM;5403 EM;94;18;3512;2016
Landschrijversveld;5403 EN;5403 EN;100;27;3798;2016
Landschrijversveld;5403 EP;5403 EP;100;10;5541;2016
Landschrijversveld;5403 ER;5403 ER;77;22;4227;2016
Drossaard;5403 ES;5403 ES;100;20;9890;2016
Drossaard;5403 ET;5403 EV;100;16;13892;2016
Schepenhoek;5403 GA;5403 GA;97;29;2521;2016
Schepenhoek;5403 GB;5403 GB;100;21;3275;2016
Schepenhoek;5403 GC;5403 GC;100;23;3049;2016
Schepenhoek;5403 GD;5403 GD;100;25;2574;2016
Schepenhoek;5403 GE;5403 GE;100;23;2806;2016
Schepenhoek;5403 GG;5403 GG;100;20;2626;2016
Eikenwal;5403 KB;5403 KB;100;27;2781;2016
Eikenwal;5403 KC;5403 KC;100;22;2211;2016
Eikenwal;5403 KD;5403 KD;98;56;3625;2016
Eikenwal;5403 KE;5403 KE;100;27;2284;2016
Eikenwal;5403 KG;5403 KG;100;29;3041;2016
Eikenwal;5403 KH;5403 KH;100;12;2368;2016
Eikenwal;5403 KJ;5403 KJ;100;12;1729;2016
Eikenwal;5403 KK;5403 KK;100;24;1920;2016
den Brier;5403 KL;5403 KM;100;31;3759;2016
den Brier;5403 KN;5403 KN;95;22;4274;2016
den Brier;5403 KP;5403 KS;100;35;3948;2016
Morene;5403 KT;5403 KV;89;28;3641;2016
Morene;5403 KW;5403 KW;100;14;4011;2016
Morene;5403 KX;5403 KX;90;10;4317;2016
Morene;5403 KZ;5403 KZ;97;30;3173;2016
Hurk;5403 LA;5403 LA;77;13;4219;2016
Hurk;5403 LB;5403 LB;94;16;4552;2016
Hurk;5403 LC;5403 LD;84;19;5582;2016
Breukrand;5403 LE;5403 LE;90;10;6482;2016
Breukrand;5403 LG;5403 LG;89;27;4245;2016
Breukrand;5403 LH;5403 LH;87;31;4156;2016
Breukrand;5403 LJ;5403 LJ;100;12;5688;2016
Heufkens;5403 LK;5403 LM;96;26;4533;2016
Heufkens;5403 LN;5403 LN;100;14;3213;2016
Heufkens;5403 LP;5403 LR;100;22;3548;2016
Heufkens;5403 LS;5403 LS;100;14;3806;2016
Heufkens;5403 LT;5403 LV;100;25;5681;2016
Heufkens;5403 LW;5403 LW;95;19;3351;2016
Stoffels;5403 NA;5403 NC;94;18;7175;2016
Stoffels;5403 ND;5403 ND;100;14;6037;2016
Stoffels;5403 NE;5403 NE;89;18;6833;2016
Stoffels;5403 NG;5403 NG;92;26;6363;2016
Stadrijk;5403 NH;5403 NH;94;18;5748;2016
Stadrijk;5403 NJ;5403 NJ;73;11;6838;2016
Stadrijk;5403 NK;5403 NK;89;18;6609;2016
Hoevenseweg;5403 PA;5403 PA;95;22;8673;2016
Artillerieweg;5403 PB;5403 PB;82;17;9334;2016
Klantstraat;5403 PD;5403 PD;96;24;7213;2016
Vlasstraat;5403 PE;5403 PG;96;27;5576;2016
Krijten;5403 PH;5403 PH;96;25;4885;2016
Heufkensweg;5403 PJ;5403 PJ;100;13;4760;2016
Krijten;5403 PK;5403 PK;96;24;4004;2016
Krijten;5403 PL;5403 PL;90;21;4481;2016
Wijsthoek;5403 RA;5403 RA;100;28;3542;2016
Wijsthoek;5403 RB;5403 RB;100;20;3263;2016
Wijsthoek;5403 RC;5403 RC;100;20;4158;2016
Wijsthoek;5403 RD;5403 RD;100;19;4096;2016
Wijsthoek;5403 RE;5403 RE;100;23;3355;2016
Wijsthoek;5403 RG;5403 RG;100;26;3271;2016
Wijsthoek;5403 RH;5403 RH;100;29;3447;2016
Wijsthoek;5403 RJ;5403 RJ;96;24;2648;2016
Wijsthoek;5403 RK;5403 RK;96;24;3523;2016
Wijsthoek;5403 RL;5403 RL;100;17;3500;2016
Vaarzenhof;5403 TA;5403 TA;95;19;2912;2016
Vaarzenhof;5403 TB;5403 TB;94;17;3167;2016
Vaarzenhof;5403 TC;5403 TC;92;24;3172;2016
Vaarzenhof;5403 TD;5403 TD;100;16;3489;2016
Vaarzenhof;5403 TE;5403 TE;100;11;3864;2016
Vaarzenhof;5403 TG;5403 TG;100;16;4600;2016
Raam;5403 TH;5403 TH;100;20;2895;2016
Raam;5403 TJ;5403 TJ;94;16;3249;2016
Raam;5403 TK;5403 TL;100;25;3493;2016
Raam;5403 TM;5403 TM;100;15;3616;2016
Raam;5403 TN;5403 TN;100;15;3647;2016
Raam;5403 TP;5403 TP;100;10;3339;2016
Raam;5403 TR;5403 TR;100;14;4299;2016
Raam;5403 TS;5403 TS;100;18;4018;2016
Vaarzenhof;5403 TT;5403 TT;95;39;3673;2016
Raamsingel;5403 TX;5403 TX;100;34;4851;2016
Raamsingel;5403 TZ;5403 TZ;96;28;4262;2016
Wachtendonk;5403 VA;5403 VA;95;20;3533;2016
Wachtendonk;5403 VB;5403 VB;100;22;3146;2016
Wachtendonk;5403 VC;5403 VC;95;22;3561;2016
Wachtendonk;5403 VD;5403 VD;100;13;3110;2016
Bijland;5403 VH;5403 VH;100;22;2928;2016
Bijland;5403 VJ;5403 VJ;100;23;3536;2016
Bijland;5403 VK;5403 VK;97;39;3431;2016
Bijland;5403 VL;5403 VL;100;23;3027;2016
Bijland;5403 VM;5403 VM;100;25;3642;2016
Raamhof;5403 VN;5403 VR;100;51;4229;2016
Wilack;5403 VS;5403 VS;88;24;3943;2016
Wilack;5403 VT;5403 VT;85;20;3867;2016
Wilack;5403 VV;5403 VV;89;18;4025;2016
Wilack;5403 VW;5403 VW;89;18;3736;2016
Raampoort;5403 VX;5403 VX;100;16;3408;2016
Sieberg;5403 WB;5403 WB;100;43;2068;2016
Sieberg;5403 WC;5403 WC;94;18;3736;2016
Sieberg;5403 WD;5403 WD;100;15;3712;2016
Sieberg;5403 WE;5403 WE;92;12;4520;2016
Sieberg;5403 WG;5403 WG;100;19;6057;2016
Sieberg;5403 WH;5403 WH;100;21;3121;2016
Sieberg;5403 WJ;5403 WJ;100;17;5623;2016
Sieberg;5403 WK;5403 WK;100;26;3421;2016
Sieberg;5403 WL;5403 WL;93;29;4105;2016
Bermershof;5403 WN;5403 WN;100;25;4180;2016
Bermershof;5403 WP;5403 WP;95;19;3722;2016
Bermershof;5403 WR;5403 WR;100;24;3920;2016
Bermershof;5403 WS;5403 WS;100;26;3188;2016
Bermershof;5403 WT;5403 WT;100;27;3572;2016
Bermershof;5403 WV;5403 WV;100;20;3312;2016
Bermershof;5403 WX;5403 WX;100;34;2681;2016
Bermershof;5403 WZ;5403 WZ;93;28;3981;2016
Germenzeel;5403 XA;5403 XA;100;22;2802;2016
Germenzeel;5403 XB;5403 XB;100;24;3014;2016
Germenzeel;5403 XC;5403 XC;100;24;3897;2016
Germenzeel;5403 XD;5403 XD;100;23;6183;2016
Germenzeel;5403 XE;5403 XE;100;16;2889;2016
Efferen;5403 XJ;5403 XJ;100;21;3255;2016
Lauwere;5403 XK;5403 XK;88;32;2960;2016
Lauwere;5403 XL;5403 XL;100;14;3379;2016
Efferen;5403 XM;5403 XM;100;32;2689;2016
Efferen;5403 XN;5403 XN;95;21;2961;2016
Efferen;5403 XP;5403 XP;100;23;2607;2016
Lauwere;5403 XS;5403 XS;92;36;3298;2016
't Diepe;5404 KA;5404 KA;92;12;4511;2016
't Diepe;5404 KB;5404 KB;92;13;4710;2016
Speelweide;5404 KC;5404 KC;100;13;8008;2016
Speelweide;5404 KD;5404 KD;82;17;5990;2016
Vlinderslag;5404 KE;5404 KH;86;21;4546;2016
Zonneweide;5404 KJ;5404 KK;96;24;6803;2016
De Vang;5404 KL;5404 KL;100;14;2961;2016
De Wieken;5404 KM;5404 KM;96;24;6095;2016
De Wieken;5404 KN;5404 KN;100;26;2552;2016
Runmolen;5404 KP;5404 KP;94;18;5213;2016
Runmolen;5404 KT;5404 KT;97;31;3640;2016
Velmolenweg;5404 LB;5404 LB;93;40;5779;2016
Velmolenweg;5404 LC;5404 LC;100;29;3133;2016
Velmolenweg;5404 LD;5404 LD;97;33;6524;2016
Oude Maasstraat;5404 LE;5404 LE;96;26;5797;2016
Oude Maasstraat;5404 LG;5404 LG;83;23;11352;2016
Eegt;5404 LK;5404 LK;83;12;2803;2016
Eegt;5404 LL;5404 LL;88;24;4210;2016
Hoogzoggel;5404 LM;5404 LM;100;25;3379;2016
Hoogzoggel;5404 LN;5404 LN;100;13;2973;2016
Hoogzoggel;5404 LP;5404 LP;100;30;1646;2016
Hoogzoggel;5404 LR;5404 LR;94;16;3337;2016
Hoogzoggel;5404 LS;5404 LS;100;53;2986;2016
Koreschoep;5404 LV;5404 LV;69;13;2540;2016
Ploeg;5404 LW;5404 LW;100;26;2814;2016
Ploeg;5404 LX;5404 LX;100;16;3900;2016
Ploeg;5404 LZ;5404 LZ;100;20;3476;2016
Horgetouw;5404 MA;5404 MB;100;13;4027;2016
Bertrandhof;5404 MC;5404 MC;100;13;3220;2016
Bertrandhof;5404 MD;5404 MD;97;31;2944;2016
Dertienvat;5404 ME;5404 MH;86;29;3704;2016
Dertienvat;5404 MJ;5404 MJ;100;12;3513;2016
Morkolf;5404 MK;5404 MK;100;21;3856;2016
Hekkeslag;5404 ML;5404 ML;100;28;3950;2016
Hekkeslag;5404 MN;5404 MN;96;24;4577;2016
Wetstrikkel;5404 MP;5404 MP;90;21;4564;2016
Den Dries;5404 MR;5404 MR;100;20;3445;2016
Zicht;5404 MS;5404 MT;95;22;2752;2016
Kazernestraat;5404 NA;5404 NA;100;47;2246;2016
Zoggelstraat;5404 NC;5404 NC;92;13;6318;2016
Maasstraat;5404 ND;5404 ND;96;24;6483;2016
Veilingstraat;5404 NE;5404 NE;100;43;2891;2016
Parklaan;5404 NH;5404 NK;100;29;15641;2016
Sportlaan;5404 NL;5404 NN;100;38;5891;2016
Abdijlaan;5404 NP;5404 NP;100;30;2281;2016
Abdijlaan;5404 NR;5404 NR;100;14;2442;2016
Veilingstraat;5404 NS;5404 NV;98;83;3429;2016
Veilingstraat;5404 NX;5404 NX;100;63;2580;2016
Veilingstraat;5404 NZ;5404 NZ;96;23;3295;2016
Rondeel;5404 PA;5404 PA;96;23;3757;2016
Rondeel;5404 PB;5404 PB;92;13;4271;2016
Spitsen;5404 PC;5404 PC;100;17;5803;2016
Den Akker;5404 PD;5404 PD;100;30;4933;2016
Den Akker;5404 PE;5404 PE;100;13;4669;2016
Ploegdrijverke;5404 PH;5404 PH;90;10;4088;2016
Ploegdrijverke;5404 PJ;5404 PJ;93;14;2800;2016
Toetimmerke;5404 PK;5404 PL;100;23;4753;2016
Klemvogel;5404 PM;5404 PM;100;22;4373;2016
Klemvogel;5404 PN;5404 PN;87;23;3212;2016
Hulstheuvel;5404 PP;5404 PP;100;23;6587;2016
Hulstheuvel;5404 PR;5404 PR;64;11;5378;2016
Gruunsel;5404 PS;5404 PS;85;26;4951;2016
Gruunsel;5404 PT;5404 PT;78;18;3455;2016
Vunderke;5404 PW;5404 PW;76;21;5344;2016
Industrielaan;5405 AA;5405 AA;100;13;48177;2016
Loopkantstraat;5405 AB;5405 AC;95;19;35687;2016
Energielaan;5405 AD;5405 AD;100;11;25155;2016
Handelslaan;5405 AE;5405 AE;100;11;16017;2016
Nijverheidsstraat;5405 AG;5405 AK;97;37;31909;2016
Linie;5405 AM;5405 AN;100;27;11368;2016
Vlijtstraat;5405 AP;5405 AT;94;31;15034;2016
Rietdekkerstraat;5405 AV;5405 BE;98;40;18962;2016
Weverstraat;5405 BG;5405 BM;97;39;24572;2016
Weverstraat;5405 BN;5405 BP;100;21;22807;2016
Zadelmakerstraat;5405 BR;5405 BS;93;30;16089;2016
Loopkantstraat;5405 NB;5405 NB;95;40;16952;2016
Protonenlaan;5405 NC;5405 NE;100;27;12664;2016
Neutronenlaan;5405 NG;5405 NH;100;36;6615;2016
Udenseweg;5405 NJ;5405 PD;100;20;25699;2016
Wislaan;5406 AA;5406 AA;99;67;3480;2016
Wislaan;5406 AC;5406 AC;99;71;4273;2016
Wislaan;5406 AD;5406 AD;94;79;5241;2016
Sesterlaan;5406 AE;5406 AE;100;11;4606;2016
Karrevracht;5406 AG;5406 AG;95;20;4854;2016
Hoenderbosplein;5406 AH;5406 AH;97;73;2629;2016
Hoenderbosplein;5406 AJ;5406 AJ;100;46;3269;2016
Garf;5406 AK;5406 AK;100;32;4077;2016
Lentemorgen;5406 AL;5406 AL;89;19;5727;2016
Lentemorgen;5406 AM;5406 AM;92;24;6606;2016
Korenmijt;5406 AN;5406 AN;98;50;4306;2016
Krombos;5406 AP;5406 AP;88;41;6072;2016
Haffel;5406 AR;5406 AR;85;20;4556;2016
Hupsel;5406 AS;5406 AS;90;20;4987;2016
Muffelke;5406 AT;5406 AT;94;18;4509;2016
Virrel;5406 AV;5406 AV;94;16;4629;2016
Schoof;5406 AW;5406 AZ;95;22;4628;2016
Muntmeester;5406 BA;5406 BA;98;86;2980;2016
Griffioen;5406 BB;5406 BB;96;23;3801;2016
Vuurijzer;5406 BD;5406 BD;90;39;4243;2016
Florijn;5406 BE;5406 BE;80;25;4281;2016
Ducaton;5406 BG;5406 BG;100;13;4441;2016
Muntmeester;5406 BH;5406 BH;98;126;4054;2016
Muntmeester;5406 BJ;5406 BJ;99;88;3440;2016
Muntmeester;5406 BK;5406 BK;100;56;3495;2016
Graveur;5406 BP;5406 BP;94;17;7341;2016
Waardijn;5406 BS;5406 BS;90;10;5870;2016
Rozenobel;5406 BT;5406 BV;89;18;4516;2016
Prinsendaalder;5406 BW;5406 BW;85;13;3319;2016
Rozebeker;5406 BX;5406 BX;95;38;2888;2016
Statendaalder;5406 BZ;5406 BZ;90;10;5507;2016
Schepel;5406 CA;5406 CB;81;27;5746;2016
Malder;5406 CC;5406 CC;88;25;4126;2016
Vim;5406 CD;5406 CE;96;24;4792;2016
Stalreep;5406 CG;5406 CH;100;40;3888;2016
Langgevel;5406 CJ;5406 CJ;100;17;3864;2016
Kortgevel;5406 CK;5406 CK;100;10;3373;2016
Gording;5406 CL;5406 CL;92;24;3082;2016
Gording;5406 CM;5406 CM;97;30;4612;2016
Gording;5406 CN;5406 CN;100;50;4882;2016
Gebont;5406 CP;5406 CP;88;16;6433;2016
Gulden;5406 DA;5406 DA;100;26;5787;2016
Pattagon;5406 DB;5406 DB;92;24;2990;2016
Reaal;5406 DD;5406 DD;93;14;3107;2016
Schelling;5406 DG;5406 DG;96;56;3209;2016
Kroon;5406 DH;5406 DH;100;20;2717;2016
Kroon;5406 DJ;5406 DJ;100;47;3037;2016
Helmteken;5406 DK;5406 DK;91;23;5768;2016
Hellebaard;5406 DL;5406 DL;69;13;7456;2016
Eikenheuvelweg;5406 NA;5406 NA;97;29;10494;2016
Ruitersweg;5406 NB;5406 NG;91;44;12216;2016
Morgenweg;5406 NJ;5406 NJ;79;33;7824;2016
Rondweg;5406 NK;5406 NN;88;34;14826;2016
Kooldertweg;5406 NP;5406 NR;100;14;20424;2016
Verlengde Velmolen;5406 NS;5406 NT;92;13;31426;2016
Moleneindstraat;5406 NX;5406 PC;82;17;16203;2016
Egelweg;5406 PD;5406 PE;91;23;11494;2016
Lageburchtweg;5406 PG;5406 PH;92;24;10830;2016
Schouwstraat;5406 PJ;5406 PL;100;17;6070;2016
Steeuwichtweg;5406 PM;5406 PP;97;31;8109;2016
Strikseweg;5406 PR;5406 PS;94;16;11949;2016
Nistelrodeseweg;5406 PT;5406 PT;100;12;18083;2016
Rattenbosweg;5406 PX;5406 SC;94;16;9394;2016
Knipperdul;5406 TA;5406 TB;85;33;14438;2016
Veghelsedijk;5406 TC;5406 TE;89;18;18754;2016
Hoogstraat;5406 TH;5406 TH;92;24;24590;2016
Derptweg;5406 TJ;5406 TM;81;27;11914;2016
Bergweg;5406 TN;5406 TN;100;10;5474;2016
Schansweg;5406 TP;5406 TP;100;17;4822;2016
Oude Bosweg;5406 TR;5406 TS;100;21;18133;2016
Raktweg;5406 TV;5406 TV;91;11;10168;2016
Voortweg;5406 TW;5406 VG;92;87;8819;2016
Udenoord;5406 VH;5406 VH;73;15;2018;2016
Slabroekseweg;5406 VK;5406 VK;100;15;4250;2016
Kraaienweg;5406 VL;5406 VR;96;25;9904;2016
Hultjeweg;5406 VS;5406 VT;100;13;3321;2016
Korte Erikaweg;5406 VV;5406 VW;95;21;7904;2016
Zevenmorgenstraat;5406 VX;5406 XH;98;60;10604;2016
Patersweg;5406 XJ;5406 XJ;100;13;28287;2016
Wilsfoort;5406 XK;5406 XP;96;46;22262;2016
Westwijk;5406 XS;5406 XS;92;13;16955;2016
Oostwijk;5406 XT;5406 XT;93;28;21850;2016
